{
    // The tab key will cycle through the settings when first created
    // Visit http://wbond.net/sublime_packages/sftp/settings for help
    
    // sftp, ftp or ftps
    "type": "ftp",

    "save_before_upload": true,
    "upload_on_save": true,
    "sync_down_on_open": false,
    "sync_skip_deletes": false,
    "sync_same_age": true,
    "confirm_downloads": false,
    "confirm_sync": false,
    "confirm_overwrite_newer": false,
    
    "host": "mfs5.funeralnet.com",
    "user": "allpawct",
    "password": "Py9THaD8",
    //"port": "22",
    
    "remote_path": "/public_html/merchandise/",
    "ignore_regexes": [
        "\\.sublime-(project|workspace)", "sftp-config(-alt\\d?)?\\.json",
        "sftp-settings\\.json", "/venv/", "\\.svn/", "\\.hg/", "\\.git/",
        "\\.bzr", "_darcs", "CVS", "\\.DS_Store", "Thumbs\\.db", "desktop\\.ini", "\\.log",
        // 
        // Ignore file in earrangement program folder
        // 
        // Ignore core folder
        "core/",
        // Ignore tar.gz file
        "\\.tar.gz/",
        // Ignore system folder
        "system/",
        // Ignore insdie application folder
        "application/cache/",
        "application/config/doctypes\\.php",
        "application/config/foreign_chars\\.php",
        "application/config/hooks\\.php",
        "application/config/migration\\.php",
        "application/config/mimes\\.php",
        "application/config/profiler\\.php",
        "application/config/smileys\\.php",
        "application/config/user_agents\\.php",
        "application/errors/",
        "application/hooks/",
        "application/language/",
        "application/logs/",
        "application/third_party/",
        // Ignore inside asset folder
        "assets/fonts/",
        "assets/images/",
        "assets/logs/",
        "assets/uploads/",
        "user_guide/"
    ],
    //"file_permissions": "664",
    //"dir_permissions": "775",
    
    //"extra_list_connections": 0,

    "connect_timeout": 10,
    // "keepalive": 120,
    //"ftp_passive_mode": true,
    //"ftp_obey_passive_host": false,
    //"ssh_key_file": "~/.ssh/id_rsa",
    //"sftp_flags": ["-F", "/path/to/ssh_config"],
    
    //"preserve_modification_times": false,
    //"remote_time_offset_in_hours": 0,
    //"remote_encoding": "utf-8",
    //"remote_locale": "C",
    //"allow_config_upload": false,
}
